[
	{
		"id": 1,
		"first_name": "Gayle",
		"last_name": "Swift",
		"email": "Gayle_Swift98@yahoo.com",
		"birthday": "2013-11-07T09:10:32.2106017+00:00",
		"registered_at": "2019-06-17T13:01:47.4951777+00:00",
		"team_id": 2
	},
	{
		"id": 2,
		"first_name": "Tad",
		"last_name": "Powlowski",
		"email": "Tad_Powlowski27@hotmail.com",
		"birthday": "2017-10-11T12:23:43.4609496+00:00",
		"registered_at": "2019-06-11T02:03:33.2621339+00:00",
		"team_id": 2
	},
	{
		"id": 3,
		"first_name": "Letha",
		"last_name": "Strosin",
		"email": "Letha.Strosin58@gmail.com",
		"birthday": "2002-05-11T15:44:15.8995244+00:00",
		"registered_at": "2019-06-17T02:56:24.8471274+00:00",
		"team_id": 4
	},
	{
		"id": 4,
		"first_name": "Teagan",
		"last_name": "Collier",
		"email": "Teagan17@gmail.com",
		"birthday": "2006-08-23T12:25:03.6642653+00:00",
		"registered_at": "2019-06-09T18:25:30.1202628+00:00",
		"team_id": 5
	},
	{
		"id": 5,
		"first_name": "Frederik",
		"last_name": "Braun",
		"email": "Frederik.Braun@hotmail.com",
		"birthday": "2001-10-03T00:56:53.0858521+00:00",
		"registered_at": "2019-05-13T20:39:51.5818085+00:00",
		"team_id": 7
	},
	{
		"id": 6,
		"first_name": "Geovanny",
		"last_name": "Grimes",
		"email": "Geovanny.Grimes@gmail.com",
		"birthday": "2014-06-01T13:47:04.4015291+00:00",
		"registered_at": "2019-05-24T16:04:46.5428431+00:00",
		"team_id": 10
	},
	{
		"id": 7,
		"first_name": "Jeanette",
		"last_name": "Shields",
		"email": "Jeanette.Shields@yahoo.com",
		"birthday": "2010-02-11T11:18:41.6547792+00:00",
		"registered_at": "2019-05-17T07:48:49.5161184+00:00",
		"team_id": 8
	},
	{
		"id": 8,
		"first_name": "Claudie",
		"last_name": "Ward",
		"email": "Claudie_Ward68@yahoo.com",
		"birthday": "2010-02-05T09:36:37.060856+00:00",
		"registered_at": "2019-05-29T06:32:07.0351228+00:00",
		"team_id": 1
	},
	{
		"id": 9,
		"first_name": "Felix",
		"last_name": "Upton",
		"email": "Felix53@hotmail.com",
		"birthday": "2015-09-04T22:05:16.586348+00:00",
		"registered_at": "2019-05-26T11:37:10.2132589+00:00",
		"team_id": null
	},
	{
		"id": 10,
		"first_name": "Alessandra",
		"last_name": "Witting",
		"email": "Alessandra_Witting72@gmail.com",
		"birthday": "2008-01-12T17:14:00.1837284+00:00",
		"registered_at": "2019-05-22T13:24:28.9213083+00:00",
		"team_id": 2
	},
	{
		"id": 11,
		"first_name": "Murray",
		"last_name": "Hegmann",
		"email": "Murray_Hegmann84@gmail.com",
		"birthday": "2013-04-14T20:10:15.7312594+00:00",
		"registered_at": "2019-05-30T15:37:26.6032667+00:00",
		"team_id": 1
	},
	{
		"id": 12,
		"first_name": "Jaron",
		"last_name": "McKenzie",
		"email": "Jaron69@hotmail.com",
		"birthday": "2005-07-05T21:26:42.7543155+00:00",
		"registered_at": "2019-05-14T08:02:18.296272+00:00",
		"team_id": 2
	},
	{
		"id": 13,
		"first_name": "Wilbert",
		"last_name": "Hintz",
		"email": "Wilbert95@hotmail.com",
		"birthday": "2008-05-06T05:49:53.8421262+00:00",
		"registered_at": "2019-05-11T04:29:49.538033+00:00",
		"team_id": 7
	},
	{
		"id": 14,
		"first_name": "Ismael",
		"last_name": "Lowe",
		"email": "Ismael.Lowe20@yahoo.com",
		"birthday": "2005-10-07T20:08:42.6857458+00:00",
		"registered_at": "2019-06-15T05:21:18.3153026+00:00",
		"team_id": null
	},
	{
		"id": 15,
		"first_name": "Vella",
		"last_name": "Daniel",
		"email": "Vella_Daniel@hotmail.com",
		"birthday": "2018-05-14T15:45:58.7839728+00:00",
		"registered_at": "2019-06-07T09:04:33.1270004+00:00",
		"team_id": 7
	},
	{
		"id": 16,
		"first_name": "Anibal",
		"last_name": "Rice",
		"email": "Anibal_Rice27@gmail.com",
		"birthday": "2010-04-19T17:53:23.2518429+00:00",
		"registered_at": "2019-06-14T01:00:10.6700001+00:00",
		"team_id": 8
	},
	{
		"id": 17,
		"first_name": "Nelle",
		"last_name": "Gislason",
		"email": "Nelle_Gislason@gmail.com",
		"birthday": "2006-05-17T16:51:01.8735246+00:00",
		"registered_at": "2019-06-19T06:32:41.408201+00:00",
		"team_id": null
	},
	{
		"id": 18,
		"first_name": "Ellsworth",
		"last_name": "Gusikowski",
		"email": "Ellsworth27@hotmail.com",
		"birthday": "2014-07-28T03:49:22.7960976+00:00",
		"registered_at": "2019-05-12T22:21:01.2732632+00:00",
		"team_id": null
	},
	{
		"id": 19,
		"first_name": "Abel",
		"last_name": "Robel",
		"email": "Abel29@yahoo.com",
		"birthday": "2012-08-18T05:30:43.4860066+00:00",
		"registered_at": "2019-06-05T15:01:22.2960096+00:00",
		"team_id": 4
	},
	{
		"id": 20,
		"first_name": "Zane",
		"last_name": "Torphy",
		"email": "Zane.Torphy@hotmail.com",
		"birthday": "2009-12-27T13:48:08.640791+00:00",
		"registered_at": "2019-05-09T19:50:49.9945877+00:00",
		"team_id": null
	},
	{
		"id": 21,
		"first_name": "Danyka",
		"last_name": "Bernier",
		"email": "Danyka_Bernier@yahoo.com",
		"birthday": "2006-07-08T23:16:46.9407364+00:00",
		"registered_at": "2019-05-31T15:59:06.4198805+00:00",
		"team_id": 2
	},
	{
		"id": 22,
		"first_name": "Dewitt",
		"last_name": "Macejkovic",
		"email": "Dewitt_Macejkovic19@gmail.com",
		"birthday": "2005-03-14T05:56:43.4450062+00:00",
		"registered_at": "2019-05-30T15:34:19.5975857+00:00",
		"team_id": 5
	},
	{
		"id": 23,
		"first_name": "Virginia",
		"last_name": "VonRueden",
		"email": "Virginia.VonRueden83@yahoo.com",
		"birthday": "2012-10-25T20:28:59.8840072+00:00",
		"registered_at": "2019-05-14T03:06:50.4655118+00:00",
		"team_id": 10
	},
	{
		"id": 24,
		"first_name": "Gideon",
		"last_name": "Treutel",
		"email": "Gideon92@hotmail.com",
		"birthday": "2005-06-16T07:00:13.3254049+00:00",
		"registered_at": "2019-05-12T18:49:31.7185296+00:00",
		"team_id": 1
	},
	{
		"id": 25,
		"first_name": "Ryley",
		"last_name": "Dooley",
		"email": "Ryley27@hotmail.com",
		"birthday": "2014-05-05T02:17:12.7482342+00:00",
		"registered_at": "2019-06-13T02:49:38.3497166+00:00",
		"team_id": null
	},
	{
		"id": 26,
		"first_name": "Alessandra",
		"last_name": "Rippin",
		"email": "Alessandra_Rippin@gmail.com",
		"birthday": "2005-02-27T17:29:33.8777103+00:00",
		"registered_at": "2019-06-01T22:02:15.3660846+00:00",
		"team_id": 1
	},
	{
		"id": 27,
		"first_name": "Salvador",
		"last_name": "Brekke",
		"email": "Salvador.Brekke79@yahoo.com",
		"birthday": "2015-03-03T21:21:40.8955746+00:00",
		"registered_at": "2019-05-27T12:51:30.4575344+00:00",
		"team_id": 1
	},
	{
		"id": 28,
		"first_name": "Nicole",
		"last_name": "Harris",
		"email": "Nicole.Harris@gmail.com",
		"birthday": "2008-02-18T21:23:15.3626702+00:00",
		"registered_at": "2019-05-19T17:16:48.9393096+00:00",
		"team_id": null
	},
	{
		"id": 29,
		"first_name": "Shannon",
		"last_name": "Hayes",
		"email": "Shannon.Hayes@yahoo.com",
		"birthday": "2006-12-28T07:04:20.7782572+00:00",
		"registered_at": "2019-05-09T22:03:29.8243494+00:00",
		"team_id": 7
	},
	{
		"id": 30,
		"first_name": "Niko",
		"last_name": "Jaskolski",
		"email": "Niko40@gmail.com",
		"birthday": "2013-10-17T14:39:36.2191412+00:00",
		"registered_at": "2019-05-16T17:24:16.9860356+00:00",
		"team_id": null
	},
	{
		"id": 31,
		"first_name": "Herta",
		"last_name": "Hermann",
		"email": "Herta29@hotmail.com",
		"birthday": "2004-05-13T04:38:25.6165587+00:00",
		"registered_at": "2019-05-10T03:30:39.7270886+00:00",
		"team_id": 1
	},
	{
		"id": 32,
		"first_name": "Mozell",
		"last_name": "Sauer",
		"email": "Mozell.Sauer54@yahoo.com",
		"birthday": "2001-09-30T06:49:45.5879192+00:00",
		"registered_at": "2019-05-26T11:47:24.5661398+00:00",
		"team_id": 2
	},
	{
		"id": 33,
		"first_name": "Reagan",
		"last_name": "Ortiz",
		"email": "Reagan_Ortiz@yahoo.com",
		"birthday": "2006-07-03T13:41:31.1353373+00:00",
		"registered_at": "2019-05-09T14:30:24.24971+00:00",
		"team_id": 5
	},
	{
		"id": 34,
		"first_name": "Obie",
		"last_name": "Gutkowski",
		"email": "Obie80@yahoo.com",
		"birthday": "2016-11-10T16:25:57.4082556+00:00",
		"registered_at": "2019-05-19T11:40:33.7831679+00:00",
		"team_id": 5
	},
	{
		"id": 35,
		"first_name": "Jamil",
		"last_name": "Dare",
		"email": "Jamil.Dare43@hotmail.com",
		"birthday": "2018-09-11T19:03:48.4716157+00:00",
		"registered_at": "2019-05-23T21:49:15.7744475+00:00",
		"team_id": null
	},
	{
		"id": 36,
		"first_name": "Tara",
		"last_name": "Hessel",
		"email": "Tara_Hessel20@gmail.com",
		"birthday": "2011-11-10T17:36:25.4646624+00:00",
		"registered_at": "2019-05-20T14:34:25.3555573+00:00",
		"team_id": 10
	},
	{
		"id": 37,
		"first_name": "Kurt",
		"last_name": "Oberbrunner",
		"email": "Kurt65@gmail.com",
		"birthday": "2008-01-16T02:32:50.3130534+00:00",
		"registered_at": "2019-06-11T04:58:44.4801038+00:00",
		"team_id": 5
	},
	{
		"id": 38,
		"first_name": "June",
		"last_name": "Lind",
		"email": "June_Lind63@hotmail.com",
		"birthday": "2018-02-01T09:52:42.5656243+00:00",
		"registered_at": "2019-05-15T11:20:09.1795395+00:00",
		"team_id": null
	},
	{
		"id": 39,
		"first_name": "Gage",
		"last_name": "Grimes",
		"email": "Gage38@gmail.com",
		"birthday": "2008-03-10T22:29:04.6435853+00:00",
		"registered_at": "2019-05-14T00:50:38.7886702+00:00",
		"team_id": 2
	},
	{
		"id": 40,
		"first_name": "Ryleigh",
		"last_name": "Herzog",
		"email": "Ryleigh10@gmail.com",
		"birthday": "2017-10-22T06:08:16.1440621+00:00",
		"registered_at": "2019-06-12T23:18:40.3959234+00:00",
		"team_id": 10
	},
	{
		"id": 41,
		"first_name": "Athena",
		"last_name": "Macejkovic",
		"email": "Athena.Macejkovic@hotmail.com",
		"birthday": "2010-01-25T04:05:25.9457497+00:00",
		"registered_at": "2019-06-02T10:06:42.8172448+00:00",
		"team_id": 1
	},
	{
		"id": 42,
		"first_name": "Caitlyn",
		"last_name": "Upton",
		"email": "Caitlyn_Upton@yahoo.com",
		"birthday": "2001-10-21T21:31:18.1722308+00:00",
		"registered_at": "2019-06-15T07:35:47.4698331+00:00",
		"team_id": 8
	},
	{
		"id": 43,
		"first_name": "Jameson",
		"last_name": "Sipes",
		"email": "Jameson68@hotmail.com",
		"birthday": "2010-09-29T07:30:00.0527377+00:00",
		"registered_at": "2019-06-18T15:56:54.4941041+00:00",
		"team_id": null
	},
	{
		"id": 44,
		"first_name": "Verda",
		"last_name": "Kerluke",
		"email": "Verda16@hotmail.com",
		"birthday": "2003-03-08T18:42:37.357187+00:00",
		"registered_at": "2019-05-31T18:23:18.7721258+00:00",
		"team_id": 5
	},
	{
		"id": 45,
		"first_name": "Miguel",
		"last_name": "Ondricka",
		"email": "Miguel28@hotmail.com",
		"birthday": "2008-05-25T17:26:25.4938895+00:00",
		"registered_at": "2019-05-14T18:44:13.9112226+00:00",
		"team_id": 7
	},
	{
		"id": 46,
		"first_name": "Dayna",
		"last_name": "Toy",
		"email": "Dayna.Toy@gmail.com",
		"birthday": "2008-10-27T10:10:36.276049+00:00",
		"registered_at": "2019-05-13T13:48:29.8718551+00:00",
		"team_id": 1
	},
	{
		"id": 47,
		"first_name": "Lorenzo",
		"last_name": "Connelly",
		"email": "Lorenzo25@hotmail.com",
		"birthday": "2004-05-30T12:11:31.5432933+00:00",
		"registered_at": "2019-05-25T01:04:24.6030755+00:00",
		"team_id": 5
	},
	{
		"id": 48,
		"first_name": "Flavie",
		"last_name": "Ryan",
		"email": "Flavie_Ryan77@yahoo.com",
		"birthday": "2015-01-28T12:24:10.4131832+00:00",
		"registered_at": "2019-05-30T07:46:31.9098133+00:00",
		"team_id": null
	},
	{
		"id": 49,
		"first_name": "Andreanne",
		"last_name": "Swift",
		"email": "Andreanne64@gmail.com",
		"birthday": "2004-10-01T03:48:20.1153595+00:00",
		"registered_at": "2019-06-12T16:47:30.0007381+00:00",
		"team_id": null
	},
	{
		"id": 50,
		"first_name": "Wyatt",
		"last_name": "Torphy",
		"email": "Wyatt_Torphy@hotmail.com",
		"birthday": "2003-04-20T02:16:37.7358838+00:00",
		"registered_at": "2019-06-03T10:14:39.6275642+00:00",
		"team_id": 4
	}
]